[
"enode://41482aa36791013330d4756661de9311d982179c4c263fcb0c9e63544acb56b646fa5ad51e0232f093017ddb920c7b2f092b13b4ac622e2cc2386efcc1cf9a0f@186.84.177.51:3011?discport=0",
"enode://f24e4b7fe486c0b8cdcc79020a2a8a38441484956fda704f3dd81a8cad2fd5c1625620a6aa055e500b975122f2a725ccdc14ff22d58b4200d000e432aa2da052@127.0.0.1:3011?discport=0",
"enode://9d33f2d4fc78b2e65265b6461a0fa22563edf489dfd9d83d0efd278b5901a5ecebe4fee5888733a0d5c9bc203ec9e67f850c12de35cb4e0b81a5d88e382bb3d1@127.0.0.1:3001?discport=0",
"enode://a07500740cbd9d653d176fc97bb94f65ec658991b31011f35dc2281e904624a835e1ae728784f2354a55ce47c95b44088b0ccb58f416ce9bf88f5856ee0a558a@127.0.0.1:3002?discport=0",
"enode://10d30111d4d8a91887dad965d830e240aa991317a740ad6ed2b8ba3ebd5ae4b42915b3a084f21d2f744d750c5ba52cca2350165bc6ab1a30088fe9b0359afa97@127.0.0.1:3003?discport=0"
]
